Date&Time , Name , Email , Description
2021-06-11 23:50:30.286769,,,
2021-06-11 23:50:59.240729,,,
2021-06-11 23:51:07.702480,,,
2021-06-11 23:56:04.970866,,,
2021-06-13 20:18:19.266352,,,
2021-06-13 21:53:30.172077,,,
2021-06-13 21:55:18.760620,,,
2021-06-13 21:56:13.697493,,,
